{
    "KPlugin": {
        "Authors": [
            {
                "Email": "kexi@kde.org",
                "Name": "Kexi Team",
                "Name[ast]": "L'equipu Kexi",
                "Name[ca@valencia]": "L'equip del Kexi",
                "Name[ca]": "L'equip del Kexi",
                "Name[cs]": "Tým Kexi",
                "Name[de]": "Kexi-Team",
                "Name[el]": "Ομάδα Kexi",
                "Name[es]": "El equipo de Kexi",
                "Name[fi]": "Kexi-työryhmä",
                "Name[fr]": "L'équipe Kexi",
                "Name[gl]": "Equipo de Kexi",
                "Name[ia]": "Equipa de Kexi",
                "Name[it]": "La squadra di Kexi",
                "Name[nl]": "Het team van Kexi",
                "Name[pl]": "Zespół Kexi",
                "Name[pt]": "Equipa do Kexi",
                "Name[pt_BR]": "Equipe do Kexi",
                "Name[sk]": "Tím Kexi",
                "Name[sv]": "Kexi-gruppen",
                "Name[tr]": "Kexi Ekibi",
                "Name[uk]": "Команда Kexi",
                "Name[x-test]": "xxKexi Teamxx",
                "Name[zh_CN]": "Kexi 团队"
            }
        ],
        "Category": "",
        "Dependencies": [],
        "Description": "KDb driver for handling Sybase and MSSQL databases",
        "Description[ast]": "Controladora KDb pa remanar bases de datos de Sybase y MSSQL",
        "Description[ca@valencia]": "Controlador del KDb per a gestionar bases de dades Sybase i MSSQL",
        "Description[ca]": "Controlador del KDb per a gestionar bases de dades Sybase i MSSQL",
        "Description[cs]": "Ovladač KDb pro práci s databázemi Sybase",
        "Description[de]": "KDb-Treiber für Sybase und MSSQL",
        "Description[el]": "KDb oδηγός για χειρισμό βάσεων δεδομένων Sybase και MSSQL",
        "Description[es]": "Controlador de KDb para manejar bases de datos Sybase y MSSQL",
        "Description[fi]": "KDb-ajuri Sybase- ja MSSQL-tietokantojen käsittelyyn",
        "Description[fr]": "Pilote KDb de gestion des bases de données Sybase et MSSQL",
        "Description[gl]": "Controlador de KDb para manexar bases de datos Sybase e MSSQL.",
        "Description[ia]": "Driver de KDb per manear bases de datos de MSSQL",
        "Description[it]": "Driver KDb per la gestione di banche dati Sybase e MSSQL",
        "Description[nl]": "KDb-stuurprogramma voor behandeling van Sybase en MSSQL databases",
        "Description[pl]": "Sterownik KDb do obsługi baz danych Sybase oraz MSSQL",
        "Description[pt]": "Controlador do KDb para lidar com bases de dados Sybase e MSSQL",
        "Description[pt_BR]": "Driver do KDb para lidar com bancos de dados Sybase e MSSQL",
        "Description[sk]": "KDb ovládač na spracovanie databáz Sybase a MSSQL",
        "Description[sv]": "Kdb-drivrutin för att hantera Sybase- och MSSQL-databaser",
        "Description[tr]": "Sysbase ve MSSQL veritabanlarını kullanabilmek için KDb sürücüsü",
        "Description[uk]": "Драйвер KDb для роботи з базами даних Sybase і MSSQL",
        "Description[x-test]": "xxKDb driver for handling Sybase and MSSQL databasesxx",
        "Description[zh_CN]": "处理 Sybase 和 MSSQL 数据库的 KDb 驱动",
        "EnabledByDefault": true,
        "Icon": "",
        "Id": "org.kde.kdb.sybase",
        "License": "LGPL",
        "MimeTypes": [],
        "Name": "Sybase",
        "Name[x-test]": "xxSybasexx",
        "ServiceTypes": [
            "KDb/Driver"
        ],
        "Version": "3.2",
        "Website": "http://kexi-project.org"
    },
    "X-KDb-FileBased": "true",
    "X-KDb-ImportingEnabled": "false"
}
