{
    "KPlugin": {
        "Authors": [
            {
                "Email": "kexi@kde.org",
                "Name": "Kexi Team",
                "Name[ast]": "L'equipu Kexi",
                "Name[ca@valencia]": "L'equip del Kexi",
                "Name[ca]": "L'equip del Kexi",
                "Name[cs]": "Tým Kexi",
                "Name[de]": "Kexi-Team",
                "Name[el]": "Ομάδα Kexi",
                "Name[es]": "El equipo de Kexi",
                "Name[fi]": "Kexi-työryhmä",
                "Name[fr]": "L'équipe Kexi",
                "Name[gl]": "Equipo de Kexi",
                "Name[ia]": "Equipa de Kexi",
                "Name[it]": "La squadra di Kexi",
                "Name[nl]": "Het team van Kexi",
                "Name[pl]": "Zespół Kexi",
                "Name[pt]": "Equipa do Kexi",
                "Name[pt_BR]": "Equipe do Kexi",
                "Name[sk]": "Tím Kexi",
                "Name[sv]": "Kexi-gruppen",
                "Name[tr]": "Kexi Ekibi",
                "Name[uk]": "Команда Kexi",
                "Name[x-test]": "xxKexi Teamxx",
                "Name[zh_CN]": "Kexi 团队"
            }
        ],
        "Category": "",
        "Dependencies": [],
        "Description": "KDb driver for handling PostgreSQL databases",
        "Description[ast]": "Controladora KDb pa remanar bases de datos PostgreSQL",
        "Description[ca@valencia]": "Controlador del KDb per a gestionar bases de dades PostgreSQL",
        "Description[ca]": "Controlador del KDb per a gestionar bases de dades PostgreSQL",
        "Description[cs]": "Ovladač KDb pro práci s databázemi PostgreSQL",
        "Description[de]": "KDb-Treiber für Postgresql",
        "Description[el]": "KDb oδηγός για χειρισμό βάσεων δεδομένων PostgreSQL",
        "Description[es]": "Controlador de KDb para manejar bases de datos PostgreSQL",
        "Description[fi]": "KDb-ajuri PostgreSQL-tietokantojen käsittelyyn",
        "Description[fr]": "Pilote KDb de gestion des bases de données PostgreSQL",
        "Description[gl]": "Controlador de KDb para manexar bases de datos PostgreSQL.",
        "Description[ia]": "Driver de KDb per manear bases de datos de PostgreSQL",
        "Description[it]": "Driver KDb per la gestione di banche dati PostgreSQL",
        "Description[nl]": "KDb-stuurprogramma for behandeling van PostgreSQL databases",
        "Description[pl]": "Sterownik KDb do obsługi baz danych PostgreSQL",
        "Description[pt]": "Controlador do KDb para lidar com bases de dados PostgreSQL",
        "Description[pt_BR]": "Driver do KDb para lidar com bancos de dados PostgreSQL",
        "Description[sk]": "KDb ovládač na spracovanie databáz PostgreSQL",
        "Description[sv]": "Kdb-drivrutin för att hantera PostgreSQL-databaser",
        "Description[tr]": "PostgreSQL veritabanlarını kullanabilmek için KDb sürücüsü",
        "Description[uk]": "Драйвер KDb для роботи з базами даних PostgreSQL",
        "Description[x-test]": "xxKDb driver for handling PostgreSQL databasesxx",
        "Description[zh_CN]": "处理 PostgreSQL 数据库的 KDb 驱动",
        "EnabledByDefault": true,
        "Icon": "",
        "Id": "org.kde.kdb.postgresql",
        "License": "LGPL",
        "MimeTypes": [],
        "Name": "PostgreSQL",
        "Name[x-test]": "xxPostgreSQLxx",
        "ServiceTypes": [
            "KDb/Driver"
        ],
        "Version": "3.2",
        "Website": "http://kexi-project.org"
    },
    "X-KDb-FileBased": "false",
    "X-KDb-ImportingEnabled": "true"
}
